{
    "types": [
        {
            "id": 1,
            "title": "Уведомление об изменении этапа бизнес-процесса",
            "entity": [
                "app\\models\\DealerPoll"
            ],
            "description": "Cообщения, которые направляются в случае изменения (получение статуса) указанных в параметрах настройки обработчика этапов бизнес-процесса",
            "template_format": "«Workflow: » {workflow}; «Этапы: » {stage}; «Адресаты: » {recipients}; «Список e-mail: » {list_email}"
        },
        {
            "id": 2,
            "title": "Уведомление об изменении действующего лица бизнес-процесса",
            "entity": [
                "app\\models\\DealerPoll"
            ],
            "description": "Cообщения, которые направляются в случае изменения действующего лица, указанных в параметрах настройки обработчика этапов бизнес-процесса",
            "template_format": "«Workflow: » {workflow}; «Этапы: » {stage}; «Действующее лицо: » {position}; «Адресаты: » {recipients}; «Список e-mail: » {list_email}"
        },
        {
            "id": 3,
            "title": "Уведомление о блокировке бизнес-процесса",
            "entity": [
                "app\\models\\DealerPoll"
            ],
            "description": "Cообщение, которое направляется в случае истечения срока, отведенного на заполнение листа оценки",
            "template_format": "«Workflow: » {workflow}; «Адресаты: » {recipients}; «Список e-mail: » {list_email}"
        },
        {
            "id": 4,
            "title": "Уведомление о продлении срока бизнес-процесса",
            "entity": [
                "app\\models\\DealerPoll"
            ],
            "description": "Cообщение, которое направляется в случае разблокировки бизнес-процесса и продлении срока его завершения",
            "template_format": "«Workflow: » {workflow}; «Адресаты: » {recipients}; «Список e-mail: » {list_email}"
        },
        {
            "id": 5,
            "title": "Уведомление о новых моделях для включения в серийные",
            "entity": [
                "app\\models\\SerialModel"
            ],
            "description": "Cообщение, которое направляется Администратору при появлении новых моделей, которые нужно включить в серийные модели",
            "template_format": "«Адресаты: » {recipients}; «Список e-mail: » {list_email}"
        }
    ],
    "typeSettings": [
        {
            "type_id": 1,
            "title": "Тип обработчика",
            "slug": "Alias title for developer",
            "system_description": "Bыбор значения из системного справочника типов обработчиков. Обязательный параметр",
            "settingsForm": {
                "is_required": 1,
                "is_multiple": 0,
                "field_type": "dropdown",
                "widget": "app\\\\widgets\\\\Select",
                "data_field": "[\"app\\\\modules\\\\SystemEvent\\\\helpers\\\\SystemEventHelper\", \"getListSystemEventType\"]",
                "type_init_data": "callable"
            }
        },
        {
            "type_id": 1,
            "title": "Обработчик",
            "slug": "Alias title for developer",
            "system_description": "Bыбор значения из справочника обработчиков событий. Обязательный параметр",
            "settingsForm": {
                "is_required": 1,
                "is_multiple": 0,
                "field_type": "dropdown",
                "widget": "app\\\\widgets\\\\Select",
                "data_field": "[\"app\\\\modules\\\\SystemEvent\\\\helpers\\\\SystemEventHelper\", \"getHandlerLabels\"]",
                "type_init_data": "callable"
            }
        },
        {
            "type_id": 1,
            "title": "Событие \\ Обработчик",
            "slug": "Alias title for developer",
            "system_description": "Ввод названия события. Обязательный параметр",
            "settingsForm": {
                "is_required": 1,
                "is_multiple": 0,
                "field_type": "input"
            }
        },
        {
            "type_id": 1,
            "title": "WorkFlow",
            "slug": "Alias title for developer",
            "system_description": "Выбор значения из системного справочника workflow. Обязательный параметр",
            "settingsForm": {
                "is_required": 1,
                "is_multiple": 0,
                "field_type": "dropdown",
                "widget": "app\\\\widgets\\\\Select",
                "data_field": "[\"app\\\\models\\\\Workflow\", \"getList\"]",
                "type_init_data": "callable"
            }
        },
        {
            "type_id": 1,
            "title": "Этапы",
            "slug": "Alias title for developer",
            "system_description": "Множественный выбор этапов выбранного workflow. Обязательный параметр",
            "settingsForm": {
                "is_required": 1,
                "is_multiple": 1,
                "field_type": "dropdown",
                "widget": "app\\\\widgets\\\\Select",
                "data_field": "[]",
                "type_init_data": "ajax"
            }
        },
        {
            "type_id": 1,
            "title": "Адресаты",
            "slug": "Alias title for developer",
            "system_description": "Множественный выбор действующих лиц выбранного workflow для отправки уведомлений. Обязательный параметр",
            "settingsForm": {
                "is_required": 1,
                "is_multiple": 1,
                "field_type": "dropdown",
                "widget": "app\\\\widgets\\\\Select",
                "data_field": "[\"app\\\\models\\\\Task\", \"getRolesList\"]",
                "type_init_data": "callable"
            }
        },
        {
            "type_id": 1,
            "title": "Список E-mail",
            "slug": "Alias title for developer",
            "system_description": "Ввод адресов e-mail через «,»",
            "settingsForm": {
                "is_required": 0,
                "is_multiple": 0,
                "field_type": "input"
            }
        },
        {
            "type_id": 1,
            "title": "Тема письма",
            "slug": "Alias title for developer",
            "system_description": "Ввод строки. Обязательный параметр",
            "settingsForm": {
                "is_required": 1,
                "is_multiple": 0,
                "field_type": "input"
            }
        },
        {
            "type_id": 1,
            "title": "Текст письма",
            "slug": "Alias title for developer",
            "system_description": "Ввод текста с переменными. Обязательный параметр",
            "settingsForm": {
                "is_required": 1,
                "is_multiple": 0,
                "field_type": "textarea"
            }
        },
        {
            "type_id": 1,
            "title": "Текст сообщения для информера событий",
            "slug": "Alias title for developer",
            "system_description": "Сообщение для информера",
            "settingsForm": {
                "is_required": 0,
                "is_multiple": 0,
                "field_type": "textarea"
            },
            "": "==========================================="
        },
        {
            "type_id": 2,
            "title": "Тип обработчика",
            "slug": "Alias title for developer",
            "system_description": "Bыбор значения из системного справочника типов обработчиков. Обязательный параметр",
            "settingsForm": {
                "is_required": 1,
                "is_multiple": 0,
                "field_type": "dropdown",
                "widget": "app\\\\widgets\\\\Select",
                "data_field": "[\"app\\\\modules\\\\SystemEvent\\\\helpers\\\\SystemEventHelper\", \"getListSystemEventType\"]",
                "type_init_data": "callable"
            }
        },
        {
            "type_id": 2,
            "title": "Обработчик",
            "slug": "Alias title for developer",
            "system_description": "Bыбор значения из справочника обработчиков событий. Обязательный параметр",
            "settingsForm": {
                "is_required": 1,
                "is_multiple": 0,
                "field_type": "dropdown",
                "widget": "app\\\\widgets\\\\Select",
                "data_field": "[\"app\\\\modules\\\\SystemEvent\\\\helpers\\\\SystemEventHelper\", \"getHandlerLabels\"]",
                "type_init_data": "callable"
            }
        },
        {
            "type_id": 2,
            "title": "Событие \\ Обработчик",
            "slug": "Alias title for developer",
            "system_description": "Ввод названия события. Обязательный параметр",
            "settingsForm": {
                "is_required": 1,
                "is_multiple": 0,
                "field_type": "input"
            }
        },
        {
            "type_id": 2,
            "title": "WorkFlow",
            "slug": "Alias title for developer",
            "system_description": "Выбор значения из системного справочника workflow. Обязательный параметр",
            "settingsForm": {
                "is_required": 1,
                "is_multiple": 0,
                "field_type": "dropdown",
                "widget": "app\\\\widgets\\\\Select",
                "data_field": "[\"app\\\\models\\\\Workflow\", \"getList\"]",
                "type_init_data": "callable"
            }
        },
        {
            "type_id": 2,
            "title": "Этапы",
            "slug": "Alias title for developer",
            "system_description": "Множественный выбор этапов выбранного workflow. Обязательный параметр",
            "settingsForm": {
                "is_required": 1,
                "is_multiple": 1,
                "field_type": "dropdown",
                "widget": "app\\\\widgets\\\\Select",
                "data_field": "[]",
                "type_init_data": "ajax"
            }
        },
        {
            "type_id": 2,
            "title": "Действующее лицо",
            "slug": "Alias title for developer",
            "system_description": "Выбор изменяемого действующего лица выбранного workflow. Обязательный параметр",
            "settingsForm": {
                "is_required": 1,
                "is_multiple": 0,
                "field_type": "dropdown",
                "widget": "app\\\\widgets\\\\Select",
                "data_field": "[\"app\\\\models\\\\Task\", \"getRolesList\"]",
                "type_init_data": "callable"
            }
        },
        {
            "type_id": 2,
            "title": "Адресаты",
            "slug": "Alias title for developer",
            "system_description": "Множественный выбор действующих лиц выбранного workflow для отправки уведомлений. Обязательный параметр",
            "settingsForm": {
                "is_required": 1,
                "is_multiple": 1,
                "field_type": "dropdown",
                "widget": "app\\\\widgets\\\\Select",
                "data_field": "[\"app\\\\models\\\\Task\", \"getRolesList\"]",
                "type_init_data": "callable"
            }
        },
        {
            "type_id": 2,
            "title": "Направлять уведомление пользователю до изменения",
            "slug": "Alias title for developer",
            "system_description": "Флаг, регулирующий необходимость отправлять сообщение пользователю, который был указан до изменения. По умолчанию флаг выкл.",
            "is_flag": true,
            "settingsForm": {
                "is_required": 0,
                "is_multiple": 0,
                "field_type": "checkbox",
                "default_value": 0
            }
        },
        {
            "type_id": 2,
            "title": "Список E-mail",
            "slug": "Alias title for developer",
            "system_description": "Ввод адресов e-mail через «,»",
            "settingsForm": {
                "is_required": 0,
                "is_multiple": 0,
                "field_type": "input"
            }
        },
        {
            "type_id": 2,
            "title": "Тема письма",
            "slug": "Alias title for developer",
            "system_description": "Ввод строки. Обязательный параметр",
            "settingsForm": {
                "is_required": 1,
                "is_multiple": 0,
                "field_type": "input"
            }
        },
        {
            "type_id": 2,
            "title": "Текст письма",
            "slug": "Alias title for developer",
            "system_description": "Ввод текста с переменными. Обязательный параметр",
            "settingsForm": {
                "is_required": 1,
                "is_multiple": 0,
                "field_type": "textarea"
            }
        },
        {
            "type_id": 2,
            "title": "Текст сообщения для информера событий",
            "slug": "Alias title for developer",
            "system_description": "Сообщение для информера",
            "settingsForm": {
                "is_required": 0,
                "is_multiple": 0,
                "field_type": "textarea"
            },
            "": "==========================================="
        },
        {
            "type_id": 3,
            "title": "Тип обработчика",
            "slug": "Alias title for developer",
            "system_description": "Bыбор значения из системного справочника типов обработчиков. Обязательный параметр",
            "settingsForm": {
                "is_required": 1,
                "is_multiple": 0,
                "field_type": "dropdown",
                "widget": "app\\\\widgets\\\\Select",
                "data_field": "[\"app\\\\modules\\\\SystemEvent\\\\helpers\\\\SystemEventHelper\", \"getListSystemEventType\"]",
                "type_init_data": "callable"
            }
        },
        {
            "type_id": 3,
            "title": "Обработчик",
            "slug": "Alias title for developer",
            "system_description": "Bыбор значения из справочника обработчиков событий. Обязательный параметр",
            "settingsForm": {
                "is_required": 1,
                "is_multiple": 0,
                "field_type": "dropdown",
                "widget": "app\\\\widgets\\\\Select",
                "data_field": "[\"app\\\\modules\\\\SystemEvent\\\\helpers\\\\SystemEventHelper\", \"getHandlerLabels\"]",
                "type_init_data": "callable"
            }
        },
        {
            "type_id": 3,
            "title": "Событие \\ Обработчик",
            "slug": "Alias title for developer",
            "system_description": "Ввод названия события. Обязательный параметр",
            "settingsForm": {
                "is_required": 1,
                "is_multiple": 0,
                "field_type": "input"
            }
        },
        {
            "type_id": 3,
            "title": "WorkFlow",
            "slug": "Alias title for developer",
            "system_description": "Выбор значения из системного справочника workflow. Обязательный параметр",
            "settingsForm": {
                "is_required": 1,
                "is_multiple": 0,
                "field_type": "dropdown",
                "widget": "app\\\\widgets\\\\Select",
                "data_field": "[\"app\\\\models\\\\Workflow\", \"getList\"]",
                "type_init_data": "callable"
            }
        },
        {
            "type_id": 3,
            "title": "Количество дней до блокировки",
            "slug": "Alias title for developer",
            "system_description": "Ввод кол-ва дней до окончания срока выполнения",
            "settingsForm": {
                "is_required": 0,
                "is_multiple": 0,
                "field_type": "input"
            }
        },
        {
            "type_id": 3,
            "title": "Этапы",
            "slug": "Alias title for developer",
            "system_description": "Множественный выбор этапов выбранного workflow. Обязательный параметр",
            "settingsForm": {
                "is_required": 1,
                "is_multiple": 1,
                "field_type": "dropdown",
                "widget": "app\\\\widgets\\\\Select",
                "data_field": "[]",
                "type_init_data": "ajax"
            }
        },
        {
            "type_id": 3,
            "title": "Действующее лицо",
            "slug": "Alias title for developer",
            "system_description": "Выбор изменяемого действующего лица выбранного workflow. Обязательный параметр",
            "settingsForm": {
                "is_required": 1,
                "is_multiple": 0,
                "field_type": "dropdown",
                "widget": "app\\\\widgets\\\\Select",
                "data_field": "[\"app\\\\models\\\\Task\", \"getRolesList\"]",
                "type_init_data": "callable"
            }
        },
        {
            "type_id": 3,
            "title": "Адресаты",
            "slug": "Alias title for developer",
            "system_description": "Множественный выбор действующих лиц выбранного workflow для отправки уведомлений. Обязательный параметр",
            "settingsForm": {
                "is_required": 1,
                "is_multiple": 1,
                "field_type": "dropdown",
                "widget": "app\\\\widgets\\\\Select",
                "data_field": "[\"app\\\\models\\\\Task\", \"getRolesList\"]",
                "type_init_data": "callable"
            }
        },
        {
            "type_id": 3,
            "title": "Направлять уведомление пользователю до изменения",
            "slug": "Alias title for developer",
            "system_description": "Флаг, регулирующий необходимость отправлять сообщение пользователю, который был указан до изменения. По умолчанию флаг выкл.",
            "is_flag": 1,
            "settingsForm": {
                "is_required": 1,
                "is_multiple": 1,
                "field_type": "checkbox"
            }
        },
        {
            "type_id": 3,
            "title": "Список E-mail",
            "slug": "Alias title for developer",
            "system_description": "Ввод адресов e-mail через «,»",
            "settingsForm": {
                "is_required": 0,
                "is_multiple": 0,
                "field_type": "input"
            }
        },
        {
            "type_id": 3,
            "title": "Тема письма",
            "slug": "Alias title for developer",
            "system_description": "ввод строки. Обязательный параметр",
            "settingsForm": {
                "is_required": 1,
                "is_multiple": 0,
                "field_type": "input"
            }
        },
        {
            "type_id": 3,
            "title": "Текст письма",
            "slug": "Alias title for developer",
            "system_description": "ввод текста с переменными. Обязательный параметр",
            "settingsForm": {
                "is_required": 1,
                "is_multiple": 0,
                "field_type": "textarea"
            }
        },
        {
            "type_id": 3,
            "title": "Текст сообщения для информера событий",
            "slug": "Alias title for developer",
            "system_description": "Сообщение для информера",
            "settingsForm": {
                "is_required": 0,
                "is_multiple": 0,
                "field_type": "textarea"
            },
            "": "==========================================="
        },
        {
            "type_id": 4,
            "title": "Тип обработчика",
            "slug": "Alias title for developer",
            "system_description": "Bыбор значения из системного справочника типов обработчиков. Обязательный параметр",
            "settingsForm": {
                "is_required": 1,
                "is_multiple": 0,
                "field_type": "dropdown",
                "widget": "app\\\\widgets\\\\Select",
                "data_field": "[\"app\\\\modules\\\\SystemEvent\\\\helpers\\\\SystemEventHelper\", \"getListSystemEventType\"]",
                "type_init_data": "callable"
            }
        },
        {
            "type_id": 4,
            "title": "Обработчик",
            "slug": "Alias title for developer",
            "system_description": "Bыбор значения из справочника обработчиков событий. Обязательный параметр",
            "settingsForm": {
                "is_required": 1,
                "is_multiple": 0,
                "field_type": "dropdown",
                "widget": "app\\\\widgets\\\\Select",
                "data_field": "[\"app\\\\modules\\\\SystemEvent\\\\helpers\\\\SystemEventHelper\", \"getHandlerLabels\"]",
                "type_init_data": "callable"
            }
        },
        {
            "type_id": 4,
            "title": "Событие \\ Обработчик",
            "slug": "Alias title for developer",
            "system_description": "Ввод названия события. Обязательный параметр",
            "settingsForm": {
                "is_required": 1,
                "is_multiple": 0,
                "field_type": "input"
            }
        },
        {
            "type_id": 4,
            "title": "WorkFlow",
            "slug": "Alias title for developer",
            "system_description": "Выбор значения из системного справочника workflow. Обязательный параметр",
            "settingsForm": {
                "is_required": 1,
                "is_multiple": 0,
                "field_type": "dropdown",
                "widget": "app\\\\widgets\\\\Select",
                "data_field": "[\"app\\\\models\\\\Workflow\", \"getList\"]",
                "type_init_data": "callable"
            }
        },
        {
            "type_id": 4,
            "title": "Этапы",
            "slug": "Alias title for developer",
            "system_description": "Множественный выбор этапов выбранного workflow. Обязательный параметр",
            "settingsForm": {
                "is_required": 1,
                "is_multiple": 1,
                "field_type": "dropdown",
                "widget": "app\\\\widgets\\\\Select",
                "data_field": "[]",
                "type_init_data": "ajax"
            }
        },
        {
            "type_id": 4,
            "title": "Адресаты",
            "slug": "Alias title for developer",
            "system_description": "Множественный выбор действующих лиц выбранного workflow для отправки уведомлений. Обязательный параметр",
            "settingsForm": {
                "is_required": 1,
                "is_multiple": 1,
                "field_type": "dropdown",
                "widget": "app\\\\widgets\\\\Select",
                "data_field": "[\"app\\\\models\\\\Task\", \"getRolesList\"]",
                "type_init_data": "callable"
            }
        },
        {
            "type_id": 4,
            "title": "Список E-mail",
            "slug": "Alias title for developer",
            "system_description": "Ввод адресов e-mail через «,». Необязательный параметр;",
            "settingsForm": {
                "is_required": 0,
                "is_multiple": 0,
                "field_type": "input"
            }
        },
        {
            "type_id": 4,
            "title": "Тема письма",
            "slug": "Alias title for developer",
            "system_description": "Ввод строки. Обязательный параметр",
            "settingsForm": {
                "is_required": 1,
                "is_multiple": 0,
                "field_type": "input"
            }
        },
        {
            "type_id": 4,
            "title": "Текст письма",
            "slug": "Alias title for developer",
            "system_description": "Ввод текста с переменными. Обязательный параметр",
            "settingsForm": {
                "is_required": 1,
                "is_multiple": 0,
                "field_type": "textarea"
            }
        },
        {
            "type_id": 4,
            "title": "Текст сообщения для информера событий",
            "slug": "Alias title for developer",
            "system_description": "Сообщение для информера",
            "settingsForm": {
                "is_required": 1,
                "is_multiple": 0,
                "field_type": "textarea"
            },
            "": "==========================================="
        },
        {
            "type_id": 5,
            "title": "Тип обработчика",
            "slug": "Alias title for developer",
            "system_description": "Bыбор значения из системного справочника типов обработчиков. Обязательный параметр",
            "settingsForm": {
                "is_required": 1,
                "is_multiple": 0,
                "field_type": "dropdown",
                "widget": "app\\\\widgets\\\\Select",
                "data_field": "[\"app\\\\modules\\\\SystemEvent\\\\helpers\\\\SystemEventHelper\", \"getListSystemEventType\"]",
                "type_init_data": "callable"
            }
        },
        {
            "type_id": 5,
            "title": "Обработчик",
            "slug": "Alias title for developer",
            "system_description": "Bыбор значения из справочника обработчиков событий. Обязательный параметр",
            "settingsForm": {
                "is_required": 1,
                "is_multiple": 0,
                "field_type": "dropdown",
                "widget": "app\\\\widgets\\\\Select",
                "data_field": "[\"app\\\\modules\\\\SystemEvent\\\\helpers\\\\SystemEventHelper\", \"getHandlerLabels\"]",
                "type_init_data": "callable"
            }
        },
        {
            "type_id": 5,
            "title": "Событие \\ Обработчик",
            "system_description": "Ввод названия события. Обязательный параметр",
            "settingsForm": {
                "is_required": 1,
                "is_multiple": 0,
                "field_type": "input"
            }
        },
        {
            "type_id": 5,
            "title": "Адресаты (Роль)",
            "system_description": "Множественный выбор действующих лиц выбранного workflow для отправки уведомлений. Обязательный параметр",
            "settingsForm": {
                "is_required": 1,
                "is_multiple": 1,
                "field_type": "dropdown",
                "widget": "app\\\\widgets\\\\Select"
            }
        },
        {
            "type_id": 5,
            "title": "Список E-mail",
            "slug": "Alias title for developer",
            "system_description": "Ввод адресов e-mail через «,». Необязательный параметр;",
            "settingsForm": {
                "is_required": 0,
                "is_multiple": 0,
                "field_type": "input"
            }
        },
        {
            "type_id": 5,
            "title": "Тема письма",
            "slug": "Alias title for developer",
            "system_description": "Ввод строки. Обязательный параметр",
            "settingsForm": {
                "is_required": 1,
                "is_multiple": 0,
                "field_type": "input"
            }
        },
        {
            "type_id": 5,
            "title": "Текст письма",
            "slug": "Alias title for developer",
            "system_description": "Ввод текста с переменными. Обязательный параметр",
            "settingsForm": {
                "is_required": 1,
                "is_multiple": 0,
                "field_type": "textarea"
            }
        },
        {
            "type_id": 5,
            "title": "Текст сообщения для информера событий",
            "slug": "Alias title for developer",
            "system_description": "Сообщение для информера",
            "settingsForm": {
                "is_required": 0,
                "is_multiple": 0,
                "field_type": "textarea"
            },
            "": "==========================================="
        }
    ],
    "modelVariable": {
        "app\\models\\DealerPoll": [
            {
                "placeholder": "{dealer}",
                "description": "Маркетинговое название дилерского центра из листа оценки",
                "relation_value": "dealer.name"
            },
            {
                "placeholder": "{dateBegin}",
                "description": "Дата начала проведения обследования по листу оценки",
                "relation_value": "dealer.active_from"
            },
            {
                "placeholder": "{dateEnd}",
                "description": "Дата окончания проведения обследования по листу оценки",
                "relation_value": "dealer.active_to"
            },
            {
                "placeholder": "{listCode}",
                "description": "Код листа оценки",
                "relation_value": "code"
            },
            {
                "placeholder": "{listName}",
                "description": "Наименование листа оценки",
                "relation_value": "name"
            },
            {
                "placeholder": "{link}",
                "description": "Ссылка на лист оценки",
                "relation_value": null
            },
            {
                "placeholder": "{points}",
                "description": "Количество набранных по листу оценки баллов",
                "relation_value": "totalPoints"
            }
        ],
        "app\\models\\Task": [
            {
                "placeholder": "{dealer}",
                "description": "Маркетинговое название дилерского центра из задачи",
                "relation_value": "dealer.name"
            },
            {
                "placeholder": "{dateTime}",
                "description": "Срок выполнения задачи",
                "relation_value": "deadline"
            },
            {
                "placeholder": "{link}",
                "description": "Ссылка на лист оценки",
                "relation_value": "dealerPoll.link"
            }
        ],
        "app\\models\\SerialModel": [
            {
                "placeholder": "{link}",
                "description": "Ссылка на справочник серийных моделей"
            },
            {
                "placeholder": "{number}",
                "description": "Количество моделей для включения"
            },
            {
                "placeholder": "{brendlist}",
                "description": "Список брендов через «,»"
            }
        ]
    },
    "emails": [
        {
            "type_id": 1,
            "eventName": "Направление листа оценки исполнителям на заполнение",
            "handler": "Уведомление о направлении листа оценки на заполнение исполнителю",
            "workflow": [
                {
                    "id": 4,
                    "name": "Листы оценки (заполняет дилер)"
                },
                {
                    "id": 3,
                    "name": "Лист оценки (заполняет дистрибьютор)"
                }
            ],
            "stages": [
                {
                    "id": 13,
                    "name": "На заполнении у BDM"
                },
                {
                    "id": 16,
                    "name": "На заполнении у дилера"
                }
            ],
            "recipients": [
                "responsible_person"
            ],
            "mail": {
                "subject": "Лист оценки",
                "message": "Вам направлен на заполнение лист оценки {listCode} {listName} для обследования дилерского центра в период с {dateBegin} по {dateEnd}. Для взятия листа оценки в работу перейдите по ссылке {link}"
            },
            "comment": "При переводе ЛО в статус «Направлен на заполнение»\nПользователю в роли «Исполнитель» должно направляться e-mail уведомление.\nПри определении потенциальных исполнителей e-mail уведомление должно направляться им всем"
        },
        {
            "type_id": 1,
            "eventName": "Невозможно определить исполнителя при наступлении даты начала обследования по листу оценки",
            "handler": "Уведомление о невозможности определить исполнителя по листу оценки",
            "workflow": [
                {
                    "id": 4,
                    "name": "Листы оценки (заполняет дилер)"
                },
                {
                    "id": 3,
                    "name": "Лист оценки (заполняет дистрибьютор)"
                }
            ],
            "stages": [
                {
                    "id": 0,
                    "name": "Проект"
                }
            ],
            "recipients": [
                "author",
                "answerable"
            ],
            "mail": {
                "subject": "Лист оценки",
                "message": "Лист оценки {listCode} {listName} для проведения обследования дилерского центра {dealer} не может быть направлен на заполнение из-за отсутствия исполнителя. Обратитесь к Администратору системы для добавления исполнителя и выполните направление Листа оценки на заполнение вручную. Ссылка на лист оценки {link}"
            },
            "comment": "При попытке определить исполнителя при переводе ЛО со статуса «Проект» в статус «Направление на заполнение» направить e-mail уведомление автору ЛО.\nОтветственный отличается от автора, сообщение направляется ему тоже"
        },
        {
            "type_id": 1,
            "eventName": "Направление листа оценки на согласование дилеру",
            "handler": "Уведомление о направлении на согласование дилером листа оценки",
            "workflow": [
                {
                    "id": 4,
                    "name": "Листы оценки (заполняет дилер)"
                },
                {
                    "id": 3,
                    "name": "Лист оценки (заполняет дистрибьютор)"
                }
            ],
            "stages": [
                {
                    "id": 14,
                    "name": "На согласовании у дилера"
                },
                {
                    "id": 18,
                    "name": "На согласовании у дилера"
                }
            ],
            "recipients": [
                "approver"
            ],
            "mail": {
                "subject": "Лист оценки",
                "message": "Вам направлены на согласование оценки по критериям листа оценки {listCode} {listName}. Ссылка на лист оценки {link}"
            },
            "comment": "При переводе ЛО в статус «На согласовании у дилера» пользователю в роли «Согласующий» должно направляться e-mail уведомление"
        },
        {
            "type_id": 1,
            "eventName": "Утверждение листа оценки",
            "handler": "Уведомление о направлении на утверждение листа оценки",
            "workflow": [
                {
                    "id": 4,
                    "name": "Листы оценки (заполняет дилер)"
                },
                {
                    "id": 3,
                    "name": "Лист оценки (заполняет дистрибьютор)"
                }
            ],
            "stages": [
                {
                    "id": "На утверждении у Дистрибьютора",
                    "isUnknow": false
                }
            ],
            "recipients": [
                "answerable"
            ],
            "mail": {
                "subject": "Лист оценки",
                "message": "Вам направлены на утверждение оценки по критериям листа оценки {listCode} {listName} по обследованию дилерского центра {dealer}."
            },
            "comment": "При переводе ЛО в статус «На утверждении у Дистрибьютора» пользователю в роли «Ответственный» должно направляться e-mail уведомление"
        },
        {
            "type_id": 1,
            "eventName": "Закрытие листа оценки",
            "handler": "Уведомление закрытии листа оценки",
            "workflow": [
                {
                    "id": 4,
                    "name": "Листы оценки (заполняет дилер)"
                },
                {
                    "id": 3,
                    "name": "Лист оценки (заполняет дистрибьютор)"
                }
            ],
            "stages": [
                {
                    "id": 1,
                    "name": "Закрыто"
                }
            ],
            "recipients": [
                "responsible_person",
                "approver"
            ],
            "mail": {
                "subject": "Лист оценки",
                "message": "Лист оценки {listCode} {listName} по обследованию дилерского центра {dealer} утвержден. По листу оценки получено {points} баллов"
            },
            "comment": "При переводе ЛО в статус «Закрыто» пользователям в ролях «Исполнитель» и «Согласующий» должны направляться e-mail уведомление.\nИсполнитель отличается от согласующего, тогда направляется 2 уведомления"
        },
        {
            "type_id": 1,
            "eventName": "Закрытие листа оценки",
            "handler": "Уведомление закрытии листа оценки",
            "workflow": [
                {
                    "id": 4,
                    "name": "Листы оценки (заполняет дилер)"
                },
                {
                    "id": 3,
                    "name": "Лист оценки (заполняет дистрибьютор)"
                }
            ],
            "stages": [
                {
                    "id": 1,
                    "name": "Закрыто"
                }
            ],
            "recipients": [
                "responsible_person",
                "approver"
            ],
            "mail": {
                "subject": "Лист оценки",
                "message": "Лист оценки {listCode} {listName} по обследованию дилерского центра {dealer} утвержден. По листу оценки получено {points} баллов"
            },
            "comment": "При переводе ЛО в статус «Закрыто» пользователям в ролях «Исполнитель» и «Согласующий» должны направляться e-mail уведомление.\nИсполнитель отличается от согласующего, тогда направляется 2 уведомления"
        },
        {
            "type_id": 2,
            "eventName": "Назначен ответственный по листу оценки",
            "handler": "Уведомление о назначении ответственным по листу оценки",
            "workflow": [
                {
                    "id": 4,
                    "name": "Листы оценки (заполняет дилер)"
                },
                {
                    "id": 3,
                    "name": "Лист оценки (заполняет дистрибьютор)"
                }
            ],
            "stages": [
                {
                    "id": 0,
                    "name": "Проект"
                }
            ],
            "personal_user_by_workflow": [
                "answerable"
            ],
            "recipients": [
                "answerable"
            ],
            "mail": {
                "subject": "Лист оценки",
                "message": "Вы назначены ответственным за проведение обследования дилерского центра {dealer} в период с {dateBegin} по {dateEnd} в соответствии с листом оценки {link}"
            },
            "comment": "При назначении ответственного по ЛО в статусе «Проект»\nдолжно направляться e-mail уведомление. \nУведомление должно направляться только, если автор листа оценки отличается от назначенного ответственного"
        },
        {
            "type_id": 2,
            "eventName": "Изменен ответственный по листу оценки",
            "handler": "Уведомление об изменении ответственного по листу оценки",
            "workflow": [
                {
                    "id": 4,
                    "name": "Листы оценки (заполняет дилер)"
                },
                {
                    "id": 3,
                    "name": "Лист оценки (заполняет дистрибьютор)"
                }
            ],
            "stages": [
                {
                    "id": 0,
                    "name": "Проект"
                }
            ],
            "personal_user_by_workflow": [
                "answerable"
            ],
            "recipients": [
                "answerable"
            ],
            "mail": {
                "subject": "Лист оценки",
                "message": "Вы назначены ответственным за проведение обследования дилерского центра {dealer} в период с {dateBegin} по {dateEnd} в соответствии с листом оценки {link}"
            },
            "comment": "При назначении ответственного по ЛО в статусе «Проект»\nдолжно направляться e-mail уведомление. \nУведомление должно направляться только, если автор листа оценки отличается от назначенного ответственного"
        },
        {
            "type_id": 2,
            "eventName": "Изменен ответственный по листу оценки",
            "handler": "Уведомление об изменении ответственного по листу оценки",
            "workflow": [
                {
                    "id": 4,
                    "name": "Листы оценки (заполняет дилер)"
                },
                {
                    "id": 3,
                    "name": "Лист оценки (заполняет дистрибьютор)"
                }
            ],
            "stages": [
                {
                    "id": 0,
                    "name": "Проект"
                },
                {
                    "id": 13,
                    "name": "На заполнении у BDM"
                },
                {
                    "id": 16,
                    "name": "На заполнении у дилера"
                },
                {
                    "id": "На утверждении у Дистрибьютора",
                    "isUnknow": false
                },
                {
                    "id": 14,
                    "name": "На согласовании у дилера",
                    "isUnknow": false
                },
                {
                    "id": 18,
                    "name": "На согласовании у дилера",
                    "isUnknow": false
                },
                {
                    "id": "На утверждении у дистрибьютора",
                    "isUnknow": true
                }
            ],
            "personal_user_by_workflow": [
                "answerable"
            ],
            "recipients": [
                "answerable"
            ],
            "mail": {
                "subject": "Лист оценки",
                "message": "Вы назначены ответственным за проведение обследования дилерского центра {dealer} в период с {dateBegin} по {dateEnd} в соответствии с листом оценки {link}"
            },
            "comment": "При изменении ранее назначенного ответственного по ЛО в статусе, отличном от «Закрыто», ответственному должно направляться e-mail уведомление."
        },
        {
            "type_id": 2,
            "eventName": "Назначение наблюдателя по листу оценки",
            "handler": "Уведомление наблюдателю",
            "workflow": [
                {
                    "id": 4,
                    "name": "Листы оценки (заполняет дилер)"
                },
                {
                    "id": 3,
                    "name": "Лист оценки (заполняет дистрибьютор)"
                }
            ],
            "stages": [
                {
                    "id": 0,
                    "name": "Проект"
                },
                {
                    "id": 13,
                    "name": "На заполнении у BDM"
                },
                {
                    "id": 16,
                    "name": "На заполнении у дилера"
                },
                {
                    "id": 14,
                    "name": "На согласовании у дилера",
                    "isUnknow": false
                },
                {
                    "id": 18,
                    "name": "На согласовании у дилера",
                    "isUnknow": false
                },
                {
                    "id": "На утверждении у дистрибьютора",
                    "isUnknow": true
                }
            ],
            "personal_user_by_workflow": [
                "observer"
            ],
            "recipients": [
                "observer"
            ],
            "mail": {
                "subject": "Лист оценки",
                "message": "Вы указаны в качестве наблюдателя по листу оценки {listCode} {listName} для обследования дилерского центра {dealer} в период с {dateBegin} по {dateEnd}. Ссылка на лист оценки {link}"
            },
            "comment": "При назначении нового наблюдателя по ЛО ему должно направляться e-mail уведомление\nУведомление должно направляться только вновь назначенному наблюдателю (в списке может быть много наблюдателей)"
        },
        {
            "type_id": 2,
            "eventName": "Изменение исполнителя по листу оценки",
            "handler": "Уведомление о назначении исполнителемяпо листу оценки",
            "workflow": [
                {
                    "id": 4,
                    "name": "Листы оценки (заполняет дилер)"
                },
                {
                    "id": 3,
                    "name": "Лист оценки (заполняет дистрибьютор)"
                }
            ],
            "stages": [
                {
                    "id": 13,
                    "name": "На заполнении у BDM",
                    "isUnknow": false
                },
                {
                    "id": 16,
                    "name": "На заполнении у дилера",
                    "isUnknow": false
                },
                {
                    "id": 14,
                    "name": "На согласовании у дилера",
                    "isUnknow": false
                },
                {
                    "id": 18,
                    "name": "На согласовании у дилера",
                    "isUnknow": false
                },
                {
                    "id": "На утверждении у дистрибьютора",
                    "isUnknow": true
                }
            ],
            "personal_user_by_workflow": [
                "responsible_person"
            ],
            "recipients": [
                "responsible_person"
            ],
            "mail": {
                "subject": "Лист оценки",
                "message": "Вы назначены исполнителем по заполнению листа оценки {listCode} {listName} для обследования дилерского центра в период с {dateBegin} по {dateEnd}. Для взятия листа оценки в работу перейдите по ссылке на лист оценки {link}"
            },
            "comment": "«Проект» и «Закрыто»\nдолжно направляться e-mail уведомление"
        },
        {
            "type_id": 2,
            "eventName": "Изменение согласующего",
            "handler": "Уведомление согласующему",
            "workflow": [
                {
                    "id": 4,
                    "name": "Листы оценки (заполняет дилер)"
                },
                {
                    "id": 3,
                    "name": "Лист оценки (заполняет дистрибьютор)"
                }
            ],
            "stages": [
                {
                    "id": 14,
                    "name": "На согласовании у дилера"
                },
                {
                    "id": 18,
                    "name": "На согласовании у дилера"
                }
            ],
            "personal_user_by_workflow": [
                "approver",
                "responsible_person"
            ],
            "recipients": [
                "approver"
            ],
            "mail": {
                "subject": "Лист оценки",
                "message": "Вам направлены на согласование оценки по критериям листа оценки {listCode} {listName}. Ссылка на лист оценки {link}"
            },
            "comment": "При изменении согласующего по ЛО в статусе «На согласовании у дилера» должно направляться e-mail уведомление"
        },
        {
            "type_id": 3,
            "eventName": "Дата окончания обследования равна текущей",
            "handler": "Уведомление о блокировке листа оценки",
            "workflow": [
                {
                    "id": 4,
                    "name": "Листы оценки (заполняет дилер)"
                },
                {
                    "id": 3,
                    "name": "Лист оценки (заполняет дистрибьютор)"
                }
            ],
            "stages": [
                {
                    "id": 13,
                    "name": "На заполнении у BDM"
                },
                {
                    "id": 16,
                    "name": "На заполнении у дилера"
                }
            ],
            "personal_user_by_workflow": [
                "responsible_person"
            ],
            "mail": {
                "subject": "Лист оценки",
                "message": "Сегодня {dateEnd} в 23:59 по Мск истек срок проведения обследования по листу оценки {listCode} {listName} дилерского центра {dealer}. Дальнейшая работа по листу оценки заблокирована. Ссылка на лист оценки {link}"
            },
            "comment": "Уведомление должно направляться после выполнения блокировки листа оценки в 23:59 по Мск"
        },
        {
            "type_id": 3,
            "eventName": "Дата окончания обследования больше текущей на N дней",
            "handler": "Напоминание о приближении срока окончания обследования",
            "workflow": [
                {
                    "id": 4,
                    "name": "Листы оценки (заполняет дилер)"
                },
                {
                    "id": 3,
                    "name": "Лист оценки (заполняет дистрибьютор)"
                }
            ],
            "stages": [
                {
                    "id": 13,
                    "name": "На заполнении у BDM"
                },
                {
                    "id": 16,
                    "name": "На заполнении у дилера"
                }
            ],
            "personal_user_by_workflow": [
                "responsible_person"
            ],
            "mail": {
                "subject": "Лист оценки",
                "message": "Срок проведения обследования по листу оценки {listCode} {listName} дилерского центра {dealer} истекает {dateEnd}. Лист оценки будет заблокирован. Ссылка на лист оценки {link}"
            },
            "comment": "Уведомление должно направляться после выполнения блокировки листа оценки в 23:59 по Мск"
        },
        {
            "type_id": 4,
            "eventName": "Продлен срок обследования",
            "handler": "Уведомление исполнителю по листу оценки о продлении срока обследования",
            "workflow": [
                {
                    "id": 4,
                    "name": "Листы оценки (заполняет дилер)"
                },
                {
                    "id": 3,
                    "name": "Лист оценки (заполняет дистрибьютор)"
                }
            ],
            "stages": [
                {
                    "id": 13,
                    "name": "На заполнении у BDM"
                },
                {
                    "id": 16,
                    "name": "На заполнении у дилера"
                }
            ],
            "personal_user_by_workflow": [
                "responsible_person"
            ],
            "mail": {
                "subject": "Лист оценки",
                "message": "Срок проведения обследования по листу оценки {listCode} {listName} дилерского центра {dealer} продлен ответственным до {dateEnd}. Ссылка на лист оценки {link}"
            },
            "comment": "Уведомление должно отправляться при выполнении действия «Продление срока» заблокированного листа оценки"
        },
        {
            "type_id": 5,
            "eventName": "Уведомление о необходимости включить новые модели в серийные",
            "handler": "Уведомление исполнителю по листу оценки о продлении срока обследования",
            "role": [
                1,
                3
            ],
            "mail": {
                "subject": "Новые модели",
                "message": "В справочник моделей добавлено {number} моделей следующих брендов {brendlist}. Необходимо включить данные модели в справочник серийных моделей {link}"
            },
            "comment": "Уведомление должно отправляться, если {number} не равен 0."
        }
    ]
}
